{
  "href" : "https://api.spotify.com/v1/artists/4akybxRTGHJZ1DXjLhJ1qu/albums?offset=0&limit=20&album_type=single,album,compilation,appears_on,ep",
  "items" : [ {
    "album_type" : "album",
    "artists" : [ {
      "external_urls" : {
        "spotify" : "https://open.spotify.com/artist/4akybxRTGHJZ1DXjLhJ1qu"
      },
      "href" : "https://api.spotify.com/v1/artists/4akybxRTGHJZ1DXjLhJ1qu",
      "id" : "4akybxRTGHJZ1DXjLhJ1qu",
      "name" : "Kirk Franklin",
      "type" : "artist",
      "uri" : "spotify:artist:4akybxRTGHJZ1DXjLhJ1qu"
    } ],
    "available_markets" : [ "AD", "AR", "AT", "AU", "BE", "BG", "BO", "BR", "CA", "CH", "CL", "CO", "CR", "CY", "CZ", "DE", "DK", "DO", "EC", "EE", "ES", "FI", "FR", "GB", "GR", "GT", "HK", "HN", "HU", "ID", "IE", "IS", "IT", "JP", "LI", "LT", "LU", "LV", "MC", "MT", "MX", "MY", "NI", "NL", "NO", "NZ", "PA", "PE", "PH", "PL", "PT", "PY", "SE", "SG", "SK", "SV", "TR", "TW", "US", "UY" ],
    "external_urls" : {
      "spotify" : "https://open.spotify.com/album/0Uvc0XDk2O8KsPIsMMdasM"
    },
    "href" : "https://api.spotify.com/v1/albums/0Uvc0XDk2O8KsPIsMMdasM",
    "id" : "0Uvc0XDk2O8KsPIsMMdasM",
    "images" : [ {
      "height" : 640,
      "url" : "https://i.scdn.co/image/d596b090876a50581c5b0e9adec48106700b5858",
      "width" : 640
    }, {
      "height" : 300,
      "url" : "https://i.scdn.co/image/bc8b406dd4270fa5e1af051b0620400ae9a542e5",
      "width" : 300
    }, {
      "height" : 64,
      "url" : "https://i.scdn.co/image/a977c8a9c0c068a74876fcf3e56da4bb538fb1b1",
      "width" : 64
    } ],
    "name" : "Losing My Religion",
    "type" : "album",
    "uri" : "spotify:album:0Uvc0XDk2O8KsPIsMMdasM"
  }, {
    "album_type" : "album",
    "artists" : [ {
      "external_urls" : {
        "spotify" : "https://open.spotify.com/artist/4akybxRTGHJZ1DXjLhJ1qu"
      },
      "href" : "https://api.spotify.com/v1/artists/4akybxRTGHJZ1DXjLhJ1qu",
      "id" : "4akybxRTGHJZ1DXjLhJ1qu",
      "name" : "Kirk Franklin",
      "type" : "artist",
      "uri" : "spotify:artist:4akybxRTGHJZ1DXjLhJ1qu"
    } ],
    "available_markets" : [ "JP" ],
    "external_urls" : {
      "spotify" : "https://open.spotify.com/album/3dQCTq4RT1g3oJc9dQwKzl"
    },
    "href" : "https://api.spotify.com/v1/albums/3dQCTq4RT1g3oJc9dQwKzl",
    "id" : "3dQCTq4RT1g3oJc9dQwKzl",
    "images" : [ {
      "height" : 640,
      "url" : "https://i.scdn.co/image/d596b090876a50581c5b0e9adec48106700b5858",
      "width" : 640
    }, {
      "height" : 300,
      "url" : "https://i.scdn.co/image/bc8b406dd4270fa5e1af051b0620400ae9a542e5",
      "width" : 300
    }, {
      "height" : 64,
      "url" : "https://i.scdn.co/image/a977c8a9c0c068a74876fcf3e56da4bb538fb1b1",
      "width" : 64
    } ],
    "name" : "Losing My Religion",
    "type" : "album",
    "uri" : "spotify:album:3dQCTq4RT1g3oJc9dQwKzl"
  }, {
    "album_type" : "album",
    "artists" : [ {
      "external_urls" : {
        "spotify" : "https://open.spotify.com/artist/4akybxRTGHJZ1DXjLhJ1qu"
      },
      "href" : "https://api.spotify.com/v1/artists/4akybxRTGHJZ1DXjLhJ1qu",
      "id" : "4akybxRTGHJZ1DXjLhJ1qu",
      "name" : "Kirk Franklin",
      "type" : "artist",
      "uri" : "spotify:artist:4akybxRTGHJZ1DXjLhJ1qu"
    } ],
    "available_markets" : [ "AD", "AR", "AT", "AU", "BE", "BG", "BO", "BR", "CA", "CH", "CL", "CO", "CR", "CY", "CZ", "DE", "DK", "DO", "EC", "EE", "ES", "FI", "FR", "GB", "GR", "GT", "HK", "HN", "HU", "ID", "IE", "IS", "IT", "LI", "LT", "LU", "LV", "MC", "MT", "MX", "MY", "NI", "NL", "NO", "NZ", "PA", "PE", "PH", "PL", "PT", "PY", "SE", "SG", "SK", "SV", "TR", "TW", "US", "UY" ],
    "external_urls" : {
      "spotify" : "https://open.spotify.com/album/5jmz4EGoRRbBvzaLRNAPEA"
    },
    "href" : "https://api.spotify.com/v1/albums/5jmz4EGoRRbBvzaLRNAPEA",
    "id" : "5jmz4EGoRRbBvzaLRNAPEA",
    "images" : [ {
      "height" : 640,
      "url" : "https://i.scdn.co/image/d596b090876a50581c5b0e9adec48106700b5858",
      "width" : 640
    }, {
      "height" : 300,
      "url" : "https://i.scdn.co/image/bc8b406dd4270fa5e1af051b0620400ae9a542e5",
      "width" : 300
    }, {
      "height" : 64,
      "url" : "https://i.scdn.co/image/a977c8a9c0c068a74876fcf3e56da4bb538fb1b1",
      "width" : 64
    } ],
    "name" : "Losing My Religion",
    "type" : "album",
    "uri" : "spotify:album:5jmz4EGoRRbBvzaLRNAPEA"
  }, {
    "album_type" : "album",
    "artists" : [ {
      "external_urls" : {
        "spotify" : "https://open.spotify.com/artist/4akybxRTGHJZ1DXjLhJ1qu"
      },
      "href" : "https://api.spotify.com/v1/artists/4akybxRTGHJZ1DXjLhJ1qu",
      "id" : "4akybxRTGHJZ1DXjLhJ1qu",
      "name" : "Kirk Franklin",
      "type" : "artist",
      "uri" : "spotify:artist:4akybxRTGHJZ1DXjLhJ1qu"
    } ],
    "available_markets" : [ "AD", "AR", "AT", "AU", "BE", "BG", "BO", "BR", "CA", "CH", "CL", "CO", "CR", "CY", "CZ", "DE", "DK", "DO", "EC", "EE", "ES", "FI", "FR", "GB", "GR", "GT", "HK", "HN", "HU", "ID", "IE", "IS", "IT", "LI", "LT", "LU", "LV", "MC", "MT", "MX", "MY", "NI", "NL", "NO", "NZ", "PA", "PE", "PH", "PL", "PT", "PY", "SE", "SG", "SK", "SV", "TR", "TW", "US", "UY" ],
    "external_urls" : {
      "spotify" : "https://open.spotify.com/album/3iIGoy5Xj3bKYqtH0B37RP"
    },
    "href" : "https://api.spotify.com/v1/albums/3iIGoy5Xj3bKYqtH0B37RP",
    "id" : "3iIGoy5Xj3bKYqtH0B37RP",
    "images" : [ {
      "height" : 640,
      "url" : "https://i.scdn.co/image/d596b090876a50581c5b0e9adec48106700b5858",
      "width" : 640
    }, {
      "height" : 300,
      "url" : "https://i.scdn.co/image/bc8b406dd4270fa5e1af051b0620400ae9a542e5",
      "width" : 300
    }, {
      "height" : 64,
      "url" : "https://i.scdn.co/image/a977c8a9c0c068a74876fcf3e56da4bb538fb1b1",
      "width" : 64
    } ],
    "name" : "Losing My Religion",
    "type" : "album",
    "uri" : "spotify:album:3iIGoy5Xj3bKYqtH0B37RP"
  }, {
    "album_type" : "album",
    "artists" : [ {
      "external_urls" : {
        "spotify" : "https://open.spotify.com/artist/4akybxRTGHJZ1DXjLhJ1qu"
      },
      "href" : "https://api.spotify.com/v1/artists/4akybxRTGHJZ1DXjLhJ1qu",
      "id" : "4akybxRTGHJZ1DXjLhJ1qu",
      "name" : "Kirk Franklin",
      "type" : "artist",
      "uri" : "spotify:artist:4akybxRTGHJZ1DXjLhJ1qu"
    } ],
    "available_markets" : [ "US" ],
    "external_urls" : {
      "spotify" : "https://open.spotify.com/album/3pxNJpoQFVi4CBxEQdxTTU"
    },
    "href" : "https://api.spotify.com/v1/albums/3pxNJpoQFVi4CBxEQdxTTU",
    "id" : "3pxNJpoQFVi4CBxEQdxTTU",
    "images" : [ {
      "height" : 636,
      "url" : "https://i.scdn.co/image/47c1e2e8610b0923a245e3398841ecbf99a41b1d",
      "width" : 640
    }, {
      "height" : 298,
      "url" : "https://i.scdn.co/image/0d469bae740178232aa3b8ecb749b9e5a6e4ba74",
      "width" : 300
    }, {
      "height" : 64,
      "url" : "https://i.scdn.co/image/8883fbfdcd27cfb792e24953d17343e0a1344a95",
      "width" : 64
    } ],
    "name" : "Setlist: The Very Best Of Kirk Franklin Live",
    "type" : "album",
    "uri" : "spotify:album:3pxNJpoQFVi4CBxEQdxTTU"
  }, {
    "album_type" : "album",
    "artists" : [ {
      "external_urls" : {
        "spotify" : "https://open.spotify.com/artist/4akybxRTGHJZ1DXjLhJ1qu"
      },
      "href" : "https://api.spotify.com/v1/artists/4akybxRTGHJZ1DXjLhJ1qu",
      "id" : "4akybxRTGHJZ1DXjLhJ1qu",
      "name" : "Kirk Franklin",
      "type" : "artist",
      "uri" : "spotify:artist:4akybxRTGHJZ1DXjLhJ1qu"
    } ],
    "available_markets" : [ "AD", "AR", "AT", "BE", "BG", "BO", "BR", "CA", "CH", "CL", "CO", "CR", "CY", "CZ", "DE", "DK", "DO", "EC", "EE", "ES", "FI", "FR", "GB", "GR", "GT", "HK", "HN", "HU", "ID", "IE", "IS", "IT", "JP", "LI", "LT", "LU", "LV", "MC", "MT", "MX", "MY", "NI", "NL", "NO", "PA", "PE", "PH", "PL", "PT", "PY", "SE", "SG", "SK", "SV", "TR", "TW", "US", "UY" ],
    "external_urls" : {
      "spotify" : "https://open.spotify.com/album/6CkiHbEFRtD75ghxLBOn3N"
    },
    "href" : "https://api.spotify.com/v1/albums/6CkiHbEFRtD75ghxLBOn3N",
    "id" : "6CkiHbEFRtD75ghxLBOn3N",
    "images" : [ {
      "height" : 640,
      "url" : "https://i.scdn.co/image/3ff95550f36348c8b0780c41fc214aa4a5ac647f",
      "width" : 640
    }, {
      "height" : 300,
      "url" : "https://i.scdn.co/image/279dc6de46910da127366fd7b284eb8de3f34b98",
      "width" : 300
    }, {
      "height" : 64,
      "url" : "https://i.scdn.co/image/92305ade7b0e47c5054cdfff2e7a2f0cb97be60e",
      "width" : 64
    } ],
    "name" : "Hello Fear",
    "type" : "album",
    "uri" : "spotify:album:6CkiHbEFRtD75ghxLBOn3N"
  }, {
    "album_type" : "album",
    "artists" : [ {
      "external_urls" : {
        "spotify" : "https://open.spotify.com/artist/4akybxRTGHJZ1DXjLhJ1qu"
      },
      "href" : "https://api.spotify.com/v1/artists/4akybxRTGHJZ1DXjLhJ1qu",
      "id" : "4akybxRTGHJZ1DXjLhJ1qu",
      "name" : "Kirk Franklin",
      "type" : "artist",
      "uri" : "spotify:artist:4akybxRTGHJZ1DXjLhJ1qu"
    } ],
    "available_markets" : [ "AR", "BO", "BR", "CL", "CO", "CR", "CZ", "EC", "GT", "HK", "HN", "HU", "ID", "MY", "NI", "PA", "PE", "PH", "PL", "PY", "SG", "SK", "SV", "TR", "TW", "UY" ],
    "external_urls" : {
      "spotify" : "https://open.spotify.com/album/4yHhZHKs4LzHkFNu51OYpe"
    },
    "href" : "https://api.spotify.com/v1/albums/4yHhZHKs4LzHkFNu51OYpe",
    "id" : "4yHhZHKs4LzHkFNu51OYpe",
    "images" : [ {
      "height" : 640,
      "url" : "https://i.scdn.co/image/88e2cc684c1f7565ebc8aeeebe8d358e889d5fd9",
      "width" : 640
    }, {
      "height" : 300,
      "url" : "https://i.scdn.co/image/432383874911205c7c7b2df17e804f15a4e982ec",
      "width" : 300
    }, {
      "height" : 64,
      "url" : "https://i.scdn.co/image/1356b29df3aeb6d07f6b1bc30cc160430076c92b",
      "width" : 64
    } ],
    "name" : "Hello Fear",
    "type" : "album",
    "uri" : "spotify:album:4yHhZHKs4LzHkFNu51OYpe"
  }, {
    "album_type" : "album",
    "artists" : [ {
      "external_urls" : {
        "spotify" : "https://open.spotify.com/artist/4akybxRTGHJZ1DXjLhJ1qu"
      },
      "href" : "https://api.spotify.com/v1/artists/4akybxRTGHJZ1DXjLhJ1qu",
      "id" : "4akybxRTGHJZ1DXjLhJ1qu",
      "name" : "Kirk Franklin",
      "type" : "artist",
      "uri" : "spotify:artist:4akybxRTGHJZ1DXjLhJ1qu"
    } ],
    "available_markets" : [ "AD", "AR", "AT", "AU", "BE", "BG", "BO", "BR", "CA", "CH", "CL", "CO", "CR", "CY", "CZ", "DE", "DK", "DO", "EC", "EE", "ES", "FI", "FR", "GB", "GR", "GT", "HK", "HN", "HU", "ID", "IE", "IS", "IT", "JP", "LI", "LT", "LU", "LV", "MC", "MT", "MX", "MY", "NI", "NL", "NO", "NZ", "PA", "PE", "PH", "PL", "PT", "PY", "SE", "SG", "SK", "SV", "TR", "TW", "US", "UY" ],
    "external_urls" : {
      "spotify" : "https://open.spotify.com/album/2g85kD3g7lt1EGtcJxs7gt"
    },
    "href" : "https://api.spotify.com/v1/albums/2g85kD3g7lt1EGtcJxs7gt",
    "id" : "2g85kD3g7lt1EGtcJxs7gt",
    "images" : [ {
      "height" : 635,
      "url" : "https://i.scdn.co/image/00cfa4e3bff9afd0fec3ecc5305a035123d7a5e1",
      "width" : 640
    }, {
      "height" : 298,
      "url" : "https://i.scdn.co/image/8a727f080f7860037a9aa0bcdc84d826bc0b0850",
      "width" : 300
    }, {
      "height" : 63,
      "url" : "https://i.scdn.co/image/7bf359a81fcd7e336d0f05030d614492868bc581",
      "width" : 64
    } ],
    "name" : "The Essential Kirk Franklin",
    "type" : "album",
    "uri" : "spotify:album:2g85kD3g7lt1EGtcJxs7gt"
  }, {
    "album_type" : "album",
    "artists" : [ {
      "external_urls" : {
        "spotify" : "https://open.spotify.com/artist/4akybxRTGHJZ1DXjLhJ1qu"
      },
      "href" : "https://api.spotify.com/v1/artists/4akybxRTGHJZ1DXjLhJ1qu",
      "id" : "4akybxRTGHJZ1DXjLhJ1qu",
      "name" : "Kirk Franklin",
      "type" : "artist",
      "uri" : "spotify:artist:4akybxRTGHJZ1DXjLhJ1qu"
    } ],
    "available_markets" : [ "HK", "PH", "TW" ],
    "external_urls" : {
      "spotify" : "https://open.spotify.com/album/0LuYYJ68vQR7OJch4jQhFu"
    },
    "href" : "https://api.spotify.com/v1/albums/0LuYYJ68vQR7OJch4jQhFu",
    "id" : "0LuYYJ68vQR7OJch4jQhFu",
    "images" : [ {
      "height" : 640,
      "url" : "https://i.scdn.co/image/a7cda3210fae2ef89792de8ac389780ba4f97692",
      "width" : 640
    }, {
      "height" : 300,
      "url" : "https://i.scdn.co/image/8e65a0b7d9f6730bf932f4e5b344dc900dbf86cd",
      "width" : 300
    }, {
      "height" : 64,
      "url" : "https://i.scdn.co/image/a6eb9b73d22f43cbdfacc446b3b097c46232840d",
      "width" : 64
    } ],
    "name" : "The Fight Of My Life",
    "type" : "album",
    "uri" : "spotify:album:0LuYYJ68vQR7OJch4jQhFu"
  }, {
    "album_type" : "album",
    "artists" : [ {
      "external_urls" : {
        "spotify" : "https://open.spotify.com/artist/4akybxRTGHJZ1DXjLhJ1qu"
      },
      "href" : "https://api.spotify.com/v1/artists/4akybxRTGHJZ1DXjLhJ1qu",
      "id" : "4akybxRTGHJZ1DXjLhJ1qu",
      "name" : "Kirk Franklin",
      "type" : "artist",
      "uri" : "spotify:artist:4akybxRTGHJZ1DXjLhJ1qu"
    } ],
    "available_markets" : [ "AD", "AR", "AT", "AU", "BE", "BG", "BO", "BR", "CA", "CH", "CL", "CO", "CR", "CY", "CZ", "DE", "DK", "DO", "EC", "EE", "ES", "FI", "FR", "GB", "GR", "GT", "HK", "HN", "HU", "ID", "IE", "IS", "IT", "JP", "LI", "LT", "LU", "LV", "MC", "MT", "MX", "MY", "NI", "NL", "NO", "NZ", "PA", "PE", "PH", "PL", "PT", "PY", "SE", "SG", "SK", "SV", "TR", "TW", "US", "UY" ],
    "external_urls" : {
      "spotify" : "https://open.spotify.com/album/4jOZyxhGDWkhJ5xXZirKDW"
    },
    "href" : "https://api.spotify.com/v1/albums/4jOZyxhGDWkhJ5xXZirKDW",
    "id" : "4jOZyxhGDWkhJ5xXZirKDW",
    "images" : [ {
      "height" : 640,
      "url" : "https://i.scdn.co/image/a7cda3210fae2ef89792de8ac389780ba4f97692",
      "width" : 640
    }, {
      "height" : 300,
      "url" : "https://i.scdn.co/image/8e65a0b7d9f6730bf932f4e5b344dc900dbf86cd",
      "width" : 300
    }, {
      "height" : 64,
      "url" : "https://i.scdn.co/image/a6eb9b73d22f43cbdfacc446b3b097c46232840d",
      "width" : 64
    } ],
    "name" : "The Fight Of My Life",
    "type" : "album",
    "uri" : "spotify:album:4jOZyxhGDWkhJ5xXZirKDW"
  }, {
    "album_type" : "album",
    "artists" : [ {
      "external_urls" : {
        "spotify" : "https://open.spotify.com/artist/4akybxRTGHJZ1DXjLhJ1qu"
      },
      "href" : "https://api.spotify.com/v1/artists/4akybxRTGHJZ1DXjLhJ1qu",
      "id" : "4akybxRTGHJZ1DXjLhJ1qu",
      "name" : "Kirk Franklin",
      "type" : "artist",
      "uri" : "spotify:artist:4akybxRTGHJZ1DXjLhJ1qu"
    } ],
    "available_markets" : [ "US" ],
    "external_urls" : {
      "spotify" : "https://open.spotify.com/album/4HyeSvKpXXTgQjXa1RVIIz"
    },
    "href" : "https://api.spotify.com/v1/albums/4HyeSvKpXXTgQjXa1RVIIz",
    "id" : "4HyeSvKpXXTgQjXa1RVIIz",
    "images" : [ {
      "height" : 640,
      "url" : "https://i.scdn.co/image/8e222bae52fd0a93c0a4622c706fd347b483ef6e",
      "width" : 640
    }, {
      "height" : 300,
      "url" : "https://i.scdn.co/image/152fdef853ec802eb4aec58fcbf1681cf418ff8f",
      "width" : 300
    }, {
      "height" : 64,
      "url" : "https://i.scdn.co/image/ddc76f258230c960f43bdd6eeef98b4e8e5d29ef",
      "width" : 64
    } ],
    "name" : "Kirk Franklin Presents Songs For The Storm, Volume 1",
    "type" : "album",
    "uri" : "spotify:album:4HyeSvKpXXTgQjXa1RVIIz"
  }, {
    "album_type" : "album",
    "artists" : [ {
      "external_urls" : {
        "spotify" : "https://open.spotify.com/artist/4akybxRTGHJZ1DXjLhJ1qu"
      },
      "href" : "https://api.spotify.com/v1/artists/4akybxRTGHJZ1DXjLhJ1qu",
      "id" : "4akybxRTGHJZ1DXjLhJ1qu",
      "name" : "Kirk Franklin",
      "type" : "artist",
      "uri" : "spotify:artist:4akybxRTGHJZ1DXjLhJ1qu"
    } ],
    "available_markets" : [ "AD", "AR", "BG", "BO", "BR", "CL", "CO", "CR", "CY", "CZ", "DK", "DO", "EC", "EE", "ES", "FI", "FR", "GB", "GR", "GT", "HN", "HU", "IE", "IS", "IT", "LT", "LV", "MC", "MT", "MX", "NI", "NO", "PA", "PE", "PL", "PT", "PY", "SE", "SK", "SV", "US", "UY" ],
    "external_urls" : {
      "spotify" : "https://open.spotify.com/album/6ZU8KFm0WRJw1vfwepNRdO"
    },
    "href" : "https://api.spotify.com/v1/albums/6ZU8KFm0WRJw1vfwepNRdO",
    "id" : "6ZU8KFm0WRJw1vfwepNRdO",
    "images" : [ {
      "height" : 640,
      "url" : "https://i.scdn.co/image/8e222bae52fd0a93c0a4622c706fd347b483ef6e",
      "width" : 640
    }, {
      "height" : 300,
      "url" : "https://i.scdn.co/image/152fdef853ec802eb4aec58fcbf1681cf418ff8f",
      "width" : 300
    }, {
      "height" : 64,
      "url" : "https://i.scdn.co/image/ddc76f258230c960f43bdd6eeef98b4e8e5d29ef",
      "width" : 64
    } ],
    "name" : "Kirk Franklin Presents: Songs For The Storm, Volume 1",
    "type" : "album",
    "uri" : "spotify:album:6ZU8KFm0WRJw1vfwepNRdO"
  }, {
    "album_type" : "album",
    "artists" : [ {
      "external_urls" : {
        "spotify" : "https://open.spotify.com/artist/4akybxRTGHJZ1DXjLhJ1qu"
      },
      "href" : "https://api.spotify.com/v1/artists/4akybxRTGHJZ1DXjLhJ1qu",
      "id" : "4akybxRTGHJZ1DXjLhJ1qu",
      "name" : "Kirk Franklin",
      "type" : "artist",
      "uri" : "spotify:artist:4akybxRTGHJZ1DXjLhJ1qu"
    } ],
    "available_markets" : [ "AR", "BO", "BR", "CA", "CH", "CL", "CO", "CR", "DE", "DK", "DO", "EC", "EE", "FI", "GB", "GT", "HK", "HN", "ID", "IE", "IS", "JP", "LI", "LT", "LV", "MX", "MY", "NI", "NO", "PA", "PE", "PH", "PY", "SE", "SG", "SV", "TW", "US", "UY" ],
    "external_urls" : {
      "spotify" : "https://open.spotify.com/album/6j1ewaeiw48zvPdaC3RK7m"
    },
    "href" : "https://api.spotify.com/v1/albums/6j1ewaeiw48zvPdaC3RK7m",
    "id" : "6j1ewaeiw48zvPdaC3RK7m",
    "images" : [ {
      "height" : 640,
      "url" : "https://i.scdn.co/image/f05a6517a51c625038679aea155ee7d58bf5fcc0",
      "width" : 640
    }, {
      "height" : 300,
      "url" : "https://i.scdn.co/image/4e0c8fd4c5ee2fb91d52cf58f3c3eb99a6bc71df",
      "width" : 300
    }, {
      "height" : 64,
      "url" : "https://i.scdn.co/image/42ea69541391e47a34aab430cef3ff34768d0647",
      "width" : 64
    } ],
    "name" : "Hero",
    "type" : "album",
    "uri" : "spotify:album:6j1ewaeiw48zvPdaC3RK7m"
  }, {
    "album_type" : "album",
    "artists" : [ {
      "external_urls" : {
        "spotify" : "https://open.spotify.com/artist/4akybxRTGHJZ1DXjLhJ1qu"
      },
      "href" : "https://api.spotify.com/v1/artists/4akybxRTGHJZ1DXjLhJ1qu",
      "id" : "4akybxRTGHJZ1DXjLhJ1qu",
      "name" : "Kirk Franklin",
      "type" : "artist",
      "uri" : "spotify:artist:4akybxRTGHJZ1DXjLhJ1qu"
    } ],
    "available_markets" : [ "AR", "BO", "BR", "CH", "CL", "CO", "CR", "DO", "EC", "GB", "GT", "HN", "IE", "LI", "MX", "NI", "PA", "PE", "PY", "SV", "UY" ],
    "external_urls" : {
      "spotify" : "https://open.spotify.com/album/3rsZ4Myz3ZZwEeAZYPx4I6"
    },
    "href" : "https://api.spotify.com/v1/albums/3rsZ4Myz3ZZwEeAZYPx4I6",
    "id" : "3rsZ4Myz3ZZwEeAZYPx4I6",
    "images" : [ {
      "height" : 640,
      "url" : "https://i.scdn.co/image/f05a6517a51c625038679aea155ee7d58bf5fcc0",
      "width" : 640
    }, {
      "height" : 300,
      "url" : "https://i.scdn.co/image/4e0c8fd4c5ee2fb91d52cf58f3c3eb99a6bc71df",
      "width" : 300
    }, {
      "height" : 64,
      "url" : "https://i.scdn.co/image/42ea69541391e47a34aab430cef3ff34768d0647",
      "width" : 64
    } ],
    "name" : "Hero",
    "type" : "album",
    "uri" : "spotify:album:3rsZ4Myz3ZZwEeAZYPx4I6"
  }, {
    "album_type" : "album",
    "artists" : [ {
      "external_urls" : {
        "spotify" : "https://open.spotify.com/artist/4akybxRTGHJZ1DXjLhJ1qu"
      },
      "href" : "https://api.spotify.com/v1/artists/4akybxRTGHJZ1DXjLhJ1qu",
      "id" : "4akybxRTGHJZ1DXjLhJ1qu",
      "name" : "Kirk Franklin",
      "type" : "artist",
      "uri" : "spotify:artist:4akybxRTGHJZ1DXjLhJ1qu"
    } ],
    "available_markets" : [ "AR", "AU", "BO", "BR", "CL", "CO", "CR", "DO", "EC", "GT", "HN", "MX", "NI", "NZ", "PA", "PE", "PY", "SV", "US", "UY" ],
    "external_urls" : {
      "spotify" : "https://open.spotify.com/album/7jI7E2aLZZucXkAQQlJMEV"
    },
    "href" : "https://api.spotify.com/v1/albums/7jI7E2aLZZucXkAQQlJMEV",
    "id" : "7jI7E2aLZZucXkAQQlJMEV",
    "images" : [ {
      "height" : 640,
      "url" : "https://i.scdn.co/image/6463d06836ad2702d125dcddc4c2d0bc1c1f8ab0",
      "width" : 640
    }, {
      "height" : 300,
      "url" : "https://i.scdn.co/image/53c22e03933fd601542fe571b578b53558331e5b",
      "width" : 300
    }, {
      "height" : 64,
      "url" : "https://i.scdn.co/image/c5e1249234fbdfdb560c3342790af4a7721951c2",
      "width" : 64
    } ],
    "name" : "A Season Of Remixes",
    "type" : "album",
    "uri" : "spotify:album:7jI7E2aLZZucXkAQQlJMEV"
  }, {
    "album_type" : "album",
    "artists" : [ {
      "external_urls" : {
        "spotify" : "https://open.spotify.com/artist/4akybxRTGHJZ1DXjLhJ1qu"
      },
      "href" : "https://api.spotify.com/v1/artists/4akybxRTGHJZ1DXjLhJ1qu",
      "id" : "4akybxRTGHJZ1DXjLhJ1qu",
      "name" : "Kirk Franklin",
      "type" : "artist",
      "uri" : "spotify:artist:4akybxRTGHJZ1DXjLhJ1qu"
    } ],
    "available_markets" : [ "AD", "AR", "AT", "AU", "BE", "BG", "BO", "BR", "CA", "CH", "CL", "CO", "CR", "CY", "CZ", "DE", "DK", "DO", "EC", "EE", "ES", "FI", "FR", "GB", "GR", "GT", "HK", "HN", "HU", "ID", "IE", "IS", "IT", "LI", "LT", "LU", "LV", "MC", "MT", "MX", "MY", "NI", "NL", "NO", "NZ", "PA", "PE", "PH", "PL", "PT", "PY", "SE", "SG", "SK", "SV", "TR", "TW", "US", "UY" ],
    "external_urls" : {
      "spotify" : "https://open.spotify.com/album/2AipEP8KHGkhpQkhqBYTfH"
    },
    "href" : "https://api.spotify.com/v1/albums/2AipEP8KHGkhpQkhqBYTfH",
    "id" : "2AipEP8KHGkhpQkhqBYTfH",
    "images" : [ {
      "height" : 640,
      "url" : "https://i.scdn.co/image/c12b0a2d1ea6096b81df9e10ab5eacec9db1e474",
      "width" : 640
    }, {
      "height" : 300,
      "url" : "https://i.scdn.co/image/8a477c5ec685c0340ff1336467429265ba1808c3",
      "width" : 300
    }, {
      "height" : 64,
      "url" : "https://i.scdn.co/image/727b298e1ad2c3fda0dbc402836b000f8ef469b1",
      "width" : 64
    } ],
    "name" : "The Nu Nation Project",
    "type" : "album",
    "uri" : "spotify:album:2AipEP8KHGkhpQkhqBYTfH"
  }, {
    "album_type" : "album",
    "artists" : [ {
      "external_urls" : {
        "spotify" : "https://open.spotify.com/artist/4akybxRTGHJZ1DXjLhJ1qu"
      },
      "href" : "https://api.spotify.com/v1/artists/4akybxRTGHJZ1DXjLhJ1qu",
      "id" : "4akybxRTGHJZ1DXjLhJ1qu",
      "name" : "Kirk Franklin",
      "type" : "artist",
      "uri" : "spotify:artist:4akybxRTGHJZ1DXjLhJ1qu"
    }, {
      "external_urls" : {
        "spotify" : "https://open.spotify.com/artist/3xtft29VZ2knyu7dEC9N7X"
      },
      "href" : "https://api.spotify.com/v1/artists/3xtft29VZ2knyu7dEC9N7X",
      "id" : "3xtft29VZ2knyu7dEC9N7X",
      "name" : "Gods Property",
      "type" : "artist",
      "uri" : "spotify:artist:3xtft29VZ2knyu7dEC9N7X"
    } ],
    "available_markets" : [ "US" ],
    "external_urls" : {
      "spotify" : "https://open.spotify.com/album/2MCmQvsAE0S5UYI413OC1E"
    },
    "href" : "https://api.spotify.com/v1/albums/2MCmQvsAE0S5UYI413OC1E",
    "id" : "2MCmQvsAE0S5UYI413OC1E",
    "images" : [ {
      "height" : 636,
      "url" : "https://i.scdn.co/image/6dba5cb8eef13f404c2a55456c676e28f8b58110",
      "width" : 640
    }, {
      "height" : 298,
      "url" : "https://i.scdn.co/image/19ca315faefe5eb486731ae73893624e31da97e5",
      "width" : 300
    }, {
      "height" : 64,
      "url" : "https://i.scdn.co/image/48ea6399e50e2f6cb55e86ded914ad354752a383",
      "width" : 64
    } ],
    "name" : "God's Property from Kirk Franklin's Nu Nation",
    "type" : "album",
    "uri" : "spotify:album:2MCmQvsAE0S5UYI413OC1E"
  }, {
    "album_type" : "album",
    "artists" : [ {
      "external_urls" : {
        "spotify" : "https://open.spotify.com/artist/4akybxRTGHJZ1DXjLhJ1qu"
      },
      "href" : "https://api.spotify.com/v1/artists/4akybxRTGHJZ1DXjLhJ1qu",
      "id" : "4akybxRTGHJZ1DXjLhJ1qu",
      "name" : "Kirk Franklin",
      "type" : "artist",
      "uri" : "spotify:artist:4akybxRTGHJZ1DXjLhJ1qu"
    } ],
    "available_markets" : [ "AD", "AR", "AT", "BE", "BG", "BO", "BR", "CA", "CH", "CL", "CO", "CR", "CY", "CZ", "DE", "DK", "DO", "EC", "EE", "ES", "FI", "FR", "GB", "GR", "GT", "HK", "HN", "HU", "ID", "IE", "IS", "IT", "JP", "LI", "LT", "LU", "LV", "MC", "MT", "MX", "MY", "NI", "NL", "NO", "PA", "PE", "PH", "PL", "PT", "PY", "SE", "SG", "SK", "SV", "TR", "TW", "US", "UY" ],
    "external_urls" : {
      "spotify" : "https://open.spotify.com/album/2LEbJTBi1Wi88sb3SWRxg4"
    },
    "href" : "https://api.spotify.com/v1/albums/2LEbJTBi1Wi88sb3SWRxg4",
    "id" : "2LEbJTBi1Wi88sb3SWRxg4",
    "images" : [ {
      "height" : 634,
      "url" : "https://i.scdn.co/image/548a94287de2c5e92e9b28d1a4ff1d1ac308922d",
      "width" : 640
    }, {
      "height" : 297,
      "url" : "https://i.scdn.co/image/8ae7dd8c2f7c239ef9454b2dd6e4f40b9e0783e8",
      "width" : 300
    }, {
      "height" : 63,
      "url" : "https://i.scdn.co/image/12df631222ef5f0e81dc4492d09fea20cafa664e",
      "width" : 64
    } ],
    "name" : "Christmas",
    "type" : "album",
    "uri" : "spotify:album:2LEbJTBi1Wi88sb3SWRxg4"
  }, {
    "album_type" : "album",
    "artists" : [ {
      "external_urls" : {
        "spotify" : "https://open.spotify.com/artist/4akybxRTGHJZ1DXjLhJ1qu"
      },
      "href" : "https://api.spotify.com/v1/artists/4akybxRTGHJZ1DXjLhJ1qu",
      "id" : "4akybxRTGHJZ1DXjLhJ1qu",
      "name" : "Kirk Franklin",
      "type" : "artist",
      "uri" : "spotify:artist:4akybxRTGHJZ1DXjLhJ1qu"
    }, {
      "external_urls" : {
        "spotify" : "https://open.spotify.com/artist/0eV7uNHXarEGKmDzr5jPxp"
      },
      "href" : "https://api.spotify.com/v1/artists/0eV7uNHXarEGKmDzr5jPxp",
      "id" : "0eV7uNHXarEGKmDzr5jPxp",
      "name" : "The Family",
      "type" : "artist",
      "uri" : "spotify:artist:0eV7uNHXarEGKmDzr5jPxp"
    } ],
    "available_markets" : [ "AR", "BO", "BR", "CL", "CO", "CR", "DO", "EC", "GT", "HN", "MX", "NI", "PA", "PE", "PY", "SV", "US", "UY" ],
    "external_urls" : {
      "spotify" : "https://open.spotify.com/album/0Ire0yqH9G0mycLF1jrXxD"
    },
    "href" : "https://api.spotify.com/v1/albums/0Ire0yqH9G0mycLF1jrXxD",
    "id" : "0Ire0yqH9G0mycLF1jrXxD",
    "images" : [ {
      "height" : 638,
      "url" : "https://i.scdn.co/image/50d984f3cacca45483d311afc67dada46055ea67",
      "width" : 640
    }, {
      "height" : 299,
      "url" : "https://i.scdn.co/image/1af0caa83e6109c9e7d01628bcda676b52c3502d",
      "width" : 300
    }, {
      "height" : 64,
      "url" : "https://i.scdn.co/image/152180cd4eb19ae975f04eba1e480af365b4a17e",
      "width" : 64
    } ],
    "name" : "Whatcha Lookin' 4",
    "type" : "album",
    "uri" : "spotify:album:0Ire0yqH9G0mycLF1jrXxD"
  }, {
    "album_type" : "album",
    "artists" : [ {
      "external_urls" : {
        "spotify" : "https://open.spotify.com/artist/4akybxRTGHJZ1DXjLhJ1qu"
      },
      "href" : "https://api.spotify.com/v1/artists/4akybxRTGHJZ1DXjLhJ1qu",
      "id" : "4akybxRTGHJZ1DXjLhJ1qu",
      "name" : "Kirk Franklin",
      "type" : "artist",
      "uri" : "spotify:artist:4akybxRTGHJZ1DXjLhJ1qu"
    } ],
    "available_markets" : [ "AR", "BO", "BR", "CL", "CO", "CR", "DO", "EC", "GT", "HK", "HN", "ID", "MX", "MY", "NI", "PA", "PE", "PH", "PY", "SG", "SV", "TW", "US", "UY" ],
    "external_urls" : {
      "spotify" : "https://open.spotify.com/album/4b1c7FWhyhIZ6OYINCx107"
    },
    "href" : "https://api.spotify.com/v1/albums/4b1c7FWhyhIZ6OYINCx107",
    "id" : "4b1c7FWhyhIZ6OYINCx107",
    "images" : [ {
      "height" : 640,
      "url" : "https://i.scdn.co/image/dd99352814061327a12e8371865c485a09fc0382",
      "width" : 454
    }, {
      "height" : 300,
      "url" : "https://i.scdn.co/image/71f301a2b9316748faea25585062dd98166cba3e",
      "width" : 213
    }, {
      "height" : 63,
      "url" : "https://i.scdn.co/image/d7aecc1c050652750c8b001e20217d7a906db1f1",
      "width" : 45
    } ],
    "name" : "Kirk Franklin and the Family",
    "type" : "album",
    "uri" : "spotify:album:4b1c7FWhyhIZ6OYINCx107"
  } ],
  "limit" : 20,
  "next" : "https://api.spotify.com/v1/artists/4akybxRTGHJZ1DXjLhJ1qu/albums?offset=20&limit=20&album_type=single,album,compilation,appears_on,ep",
  "offset" : 0,
  "previous" : null,
  "total" : 127
}
